298.090607
314.562012
265.327911
288.349823
283.707581
331.021393
286.694092
306.232574
313.219604
325.590881
293.977753
240.527023
332.95459
297.748077
318.207275
288.722076
278.197571
289.852631
351.784973
328.13678
330.856964
331.120758
268.504608
319.967194
303.729492
331.465515
329.628815
318.281128
288.767853
350.597046
254.966385
252.822647
313.251831
229.824402
322.941925
315.234802
314.981049
301.661804
293.947174
300.267853
275.10791
275.888733
302.157745
339.624084
318.143555
319.908783
280.690216
324.359924
290.908722
322.269501
308.501282
296.389618
276.765106
324.826721
243.543716
320.073975
299.906616
300.31131
271.43219
349.431702
319.470154
255.430786
290.602509
330.827271
292.748474
295.431793
320.521515
324.125122
283.811646
330.740417
333.112732
351.740723
325.868835
288.619507
283.154083
269.996674
257.68222
310.866089
325.569122
262.133636
318.805847
288.350098
296.377167
321.078613
317.181793
338.002991
267.093353
324.357269
281.803253
316.37796
334.780518
277.53891
318.557983
302.396027
309.856415
314.971741
299.788971
295.857605
285.979889
300.004944
295.810272
324.960632
278.733734
345.698792
301.047852
258.196167
290.437714
291.750885
298.614868
325.577332
317.659668
260.161469
267.921204
291.276093
303.252899
332.801636
309.951843
287.936279
293.172333
295.596405
330.253143
330.393494
270.500122
288.473053
299.923279
292.143188
291.271301
314.757812
273.900146
276.043427
312.732452
300.48877
295.401428
279.450165
309.113739
292.839233
312.423859
269.277557
301.899536
304.77887
309.013
277.041534
331.760712
283.658844
316.929016
298.847595
319.082092
332.15152
291.20163
301.818085
261.540894
297.07373
337.578094
311.982941
332.788452
297.249603
316.584839
317.289368
296.99057
315.295197
316.352264
266.191742
281.158966
284.22348
316.977234
312.269897
280.208984
284.695831
300.662262
310.744598
295.283112
270.284576
268.548431
286.894318
300.374329
279.282166
327.929535
329.355957
298.516083
346.639099
302.065063
309.200195
348.758057
307.557007
330.177704
292.982819
298.644104
307.268311
327.280945
318.225098
307.653198
304.231354
291.648254
340.082825
287.342316
323.586792
316.942871
314.344971
281.974762
277.561432
258.848267
295.789856
317.785156
333.301941
314.880859
343.519348
317.900635
333.003326
281.477173
308.410217
255.275177
294.872498
319.995697
274.423737
273.319122
296.722107
311.259033
338.503601
315.550842
304.607361
310.135773
307.037567
258.688538
286.828522
303.395447
310.858032
289.677063
287.09549
292.346008
307.028656
261.497559
287.10553
305.372528
266.081879
341.783325
291.572205
338.892548
314.726196
325.374451
304.671051
286.552368
325.382751
346.478882
288.645813
286.037903
304.165009
283.877075
311.901611
278.614899
329.858551
348.44397
311.247101
287.571411
301.42041
305.43924
290.341644
232.446609
292.281006
299.44519
252.183868
321.519104
312.481262
302.749847
292.683746
281.77478
311.854401
337.488647
289.008484
300.172058
294.766144
323.485931
321.628906
326.013763
277.38678
279.703247
278.997223
295.931183
334.297607
293.617828
274.878418
280.601349
337.347412
271.885559
311.263672
261.756256
301.48465
296.788757
330.084167
340.80603
276.053528
307.242279
308.244354
298.06604
307.889282
258.66394
329.554932
232.79866
281.437103
318.695099
301.172089
227.385361
316.794678
325.365356
298.347687
305.895233
252.668335
292.958313
243.243927
308.432617
302.420593
293.945099
280.524261
326.467346
334.423126
294.522888
296.259338
327.242188
367.381042
284.06012
280.699829
332.176544
248.690399
243.51561
321.52124
330.682556
282.192596
303.548523
343.185944
318.039276
309.124146
355.893677
313.443207
308.620758
342.856995
322.460571
312.215546
333.190247
298.364685
325.623138
333.513702
263.23822
319.006226
322.840515
307.639343
302.186951
315.211182
298.044708
311.68811
314.602295
277.607391
320.862671
315.143524
339.96933
306.69278
297.144836
308.258453
292.164337
371.93866
292.75589
293.802124
296.239227
291.269409
306.866516
314.534668
293.113831
322.852417
314.086853
353.204315
309.37674
287.025269
310.417816
330.716644
349.507202
265.924011
319.367096
302.309631
343.684235
323.291321
310.24472
288.052307
334.80304
249.406982
283.778076
319.048401
301.804779
239.948685
302.637299
321.33432
311.122833
306.448914
310.622681
286.565521
312.931976
321.165833
304.482056
301.620331
334.153503
296.596619
334.332703
291.395966
303.79361
320.903381
338.673706
352.277466
285.05954
276.922882
302.420715
285.917572
321.696716
332.21936
309.592224
285.562622
263.881592
314.645721
330.765289
313.455933
271.713257
304.832062
302.770996
305.652618
306.506775
287.430603
303.843506
321.32901
294.681732
308.693237
321.151825
302.891205
335.215759
338.197571
319.09726
269.751373
262.204742
343.262299
307.991852
282.819244
325.818268
313.0289
279.841187
291.887482
286.993683
288.93985
302.338287
296.335571
329.646912
293.80603
307.494446
314.082703
329.056061
297.560608
310.726349
319.361359
301.411865
295.719818
303.050415
291.000519
277.447449
282.611359
325.009186
244.320908
277.748138
281.515381
321.337585
292.982788
331.484161
301.305176
327.263184
349.503479
316.557495
308.863892
323.538727
290.319977
316.687683
267.001282
323.713013
264.520691
300.546021
312.688904
334.540833
312.681671
310.660553
261.26944
286.534943
263.868744
291.238098
280.167389
276.806915
332.703644
318.044556
288.637695
278.757965
327.572235
337.541595
330.635925
324.508118
297.914703
318.22821
278.707062
312.756775
297.828552
286.637817
232.757721
278.539948
298.149139
309.221558
325.143799
300.091339
296.938904
274.297028
302.962067
352.312439
295.710938
323.776764
348.927551
301.051147
308.3815
276.813416
340.811859
298.990967
316.407745
304.946625
280.947845
299.018707
311.840942
300.041626
259.336304
323.108704
296.113953
279.794891
331.265076
300.299072
310.539185
321.005707
289.310516
292.961304
285.216949
319.162781
290.433929
292.269287
273.630585
301.72406
239.545288
282.222992
317.190735
284.814453
283.138062
305.136475
267.417664
284.539093
285.936493
339.607178
283.536316
306.62326
351.677917
294.298279
323.72287
281.891785
314.206116
344.886169
332.142578
297.139618
310.606995
301.589478
315.190857
323.003174
299.208313
301.201294
275.353119
318.263275
310.72934
355.568726
303.262146
303.704773
312.98349
339.165222
310.482849
297.452942
301.047943
327.956421
322.649231
280.092346
279.639252
266.205078
354.715759
324.545227
314.076233
287.268768
318.479034
274.947327
280.84668
262.363617
280.764374
287.31485
317.878479
300.766113
305.121796
325.242889
321.123383
282.787354
297.593323
279.677094
332.32962
307.159607
286.880219
292.41095
315.268951
272.820221
317.357025
251.726089
320.068085
307.638367
337.963135
280.782898
310.41925
315.526031
311.945648
302.017639
263.846436
338.886536
245.299973
320.224548
299.355286
250.612198
317.250244
317.758881
316.528564
328.830048
305.741882
276.794037
281.098419
281.266022
263.252228
268.201965
301.452637
318.737
276.328857
306.770813
312.245575
318.98053
307.024994
327.667084
305.197235
292.500153
324.882416
273.488739
272.495483
282.994019
315.554382
329.645752
323.313477
290.726929
289.197693
340.766083
270.813812
296.477692
305.365417
263.424988
265.06546
338.302216
287.392731
301.234161
287.338593
346.546936
288.927338
310.800568
346.452637
294.127594
303.079224
307.134583
273.749786
323.768066
274.682831
279.604156
305.082825
294.999207
323.437195
284.641785
306.058472
331.692749
272.956573
344.094421
255.177063
293.157257
275.381195
327.547211
266.825806
325.885773
315.297394
293.270569
327.952789
271.628571
326.640167
343.963196
319.532043
303.259827
301.958252
284.624268
323.910889
310.261597
327.525421
352.802399
331.979797
330.982971
325.884033
284.379059
210.779984
304.651642
308.299805
342.440491
299.543732
286.197723
296.135681
311.704987
287.884033
290.368286
265.243805
278.147369
309.374115
320.678955
311.68045
300.990631
281.011169
278.125031
316.66098
319.692078
291.108093
311.460724
282.446899
297.551331
282.302795
322.18634
282.238312
316.738953
266.469879
255.560181
264.198669
334.270447
321.569519
269.404785
314.957642
282.115631
329.87027
328.653229
324.790924
274.845276
320.849457
262.132141
294.375244
277.763458
302.012604
276.689941
284.845795
307.143097
287.207184
301.286499
315.070648
274.795349
306.759064
297.055939
325.680298
307.042389
320.872437
294.908875
271.061249
307.276581
282.228943
316.015442
315.523376
288.212402
326.256653
287.085388
309.322418
321.863037
296.01889
274.490845
354.400208
290.112305
319.924286
297.588257
281.160828
291.943726
303.41745
294.423035
310.85437
339.716888
346.177826
331.483643
285.494354
329.238647
299.083313
298.312836
300.909363
338.770844
330.078827
281.284821
238.153366
286.174347
293.669067
277.732361
311.869446
329.064331
326.103943
325.753937
323.36084
312.695923
318.871246
345.629517
288.458435
343.997559
295.501038
275.594086
265.881714
298.176788
347.751587
325.454773
311.367462
300.085083
341.999329
311.237122
281.048462
280.682159
283.564636
311.326019
316.759613
342.322327
305.316895
300.094055
315.193298
293.829773
324.570648
265.34317
289.034027
313.648376
306.060547
261.612732
273.299072
298.136719
312.737732
329.708527
347.703674
299.60025
283.701996
280.648682
294.410828
333.480927
274.737335
305.988617
251.012939
315.755524
333.638367
332.530396
295.657227
283.230774
322.566071
311.487427
304.95694
243.980545
330.174438
298.970825
289.510742
329.772705
329.460236
320.96405
296.75824
291.51123
323.655426
317.166077
328.319092
293.016785
274.45639
291.488861
285.477539
280.147186
345.121033
330.128204
327.314545
277.86557
329.401672
318.509521
282.806549
271.915436
274.921661
272.244141
319.566559
308.945129
322.265442
367.905884
318.876221
301.048096
304.240906
274.298004
251.6651
251.026138
340.5
278.43399
295.292694
305.201477
290.487335
324.096191
324.10965
327.793884
278.042877
253.808929
288.179779
318.532837
281.878265
324.73291
324.417175
323.717499
286.148926
325.870941
329.016479
264.392883
287.607483
322.605316
252.582428
337.95401
262.780273
323.321655
305.681793
297.489868
293.92099
262.444946
334.701263
270.827881
326.273743
320.015045
306.76413
360.662964
281.495392
301.534607
283.072632
288.363647
288.097961
306.703949
299.298035
326.506226
271.894226
313.987274
303.87384
313.50769
298.44519
287.26059
287.200104
280.651215
274.197998
348.409485
310.036896
270.181549
331.946716
323.215973
266.292053
306.395935
307.320526
295.537811
307.464813
321.124878
309.595367
315.862
308.042328
288.725922
339.473267
302.615723
278.09433
290.514923
299.365204
256.122894
282.606018
296.157654
302.635651
324.379761
274.589417
323.538757
293.854675
302.183502
289.717438
295.576294
291.886475
278.21579
326.290131
302.906555
317.324615
308.983398
277.889069
328.995789
281.230865
287.247253
334.326355
304.992767
288.450165
325.909546
292.951141
307.196533
273.85556
279.836365
340.077118
330.803131
279.418488
333.493286
316.121826
284.863281
288.466034
288.665436
257.917877
282.640778
296.365326
329.297913
343.002014
257.762512
319.831604
311.283142
303.526764
303.374298
316.794464
330.852051
289.705292
279.305603
262.490784
214.278122
313.990845
317.117737
288.16452
322.392181
326.096924
303.527466
307.48938
272.892303
329.647705
332.008362
316.553711
348.337402
333.566467
303.195587
258.050598
305.957825
299.765808
267.694702
260.889984
316.242096
311.003021
323.255127
287.690063
316.640289
280.018372
327.064453
299.772614
292.445557
293.694733
355.888458
304.201538
265.493866
302.428467
298.527832
343.813232
295.017578
281.625854
317.182983
253.559433
305.061066
279.272675
314.702881
334.654602
302.098297
324.586914
330.662018
277.195984
340.84787
267.349762
247.099213
347.078613
291.540283
329.223755
319.622803
340.320679
320.31604
321.561127
297.560638
305.521576
285.254791
245.88266
315.375092
317.093536
293.694946
275.369537
308.962952
315.915894
308.82724
263.84903
319.482117
278.235107
314.642181
280.567047
327.335144
279.804138
263.13855
290.294739
328.30072
286.59024
278.692627
338.666504
308.445831
288.501434
322.486511
300.785248
296.028503
311.649109
323.940857
306.604187
304.684174
278.993317
337.935455
261.292145
269.30304
277.400757
249.661148
292.89975
278.548187
290.052795
305.790833
286.3013
284.784058
327.69635
310.968842
261.335907
300.08374
305.207886
304.302002
311.372437
308.351257
261.030914
306.03363
331.501617
265.706512
275.267975
291.094696
322.848083
300.2341
253.431915
281.048615
277.243652
304.695068
306.194733
309.810638
285.892517
341.436737
314.057495
295.670837
316.589996
237.520721
305.366241
351.917114
297.910522
243.276398
316.991394
336.388855
294.665405
262.781647
320.276398
325.773926
331.681152
283.409607
331.709869
274.740112
266.724121
307.387939
280.519806
294.684052
322.804504
316.725769
330.43927
280.709503
314.578827
338.796509
273.823578
291.753418
323.102692
278.52655
286.665405
304.898254
296.334595
316.530731
320.356201
313.323883
300.417145
301.888916
303.180328
277.942322
271.022522
310.181122
371.577454
288.888947
273.253876
281.819214
295.504395
238.555206
244.118317
285.066772
280.611725
306.175568
309.483459
317.042053
275.876617
297.214264
331.199707
330.514862
286.253693
248.548035
333.138062
287.309448
339.592102
280.904816
308.662842
322.489441
322.142731
293.844025
294.228455
369.763
326.112213
274.937561
313.144745
302.762421
301.628021
351.906921
301.92746
336.571533
324.660706
333.023315
318.710632
290.41803
280.899506
297.460022
337.757996
315.264832
294.505005
269.890778
332.595398
295.083893
267.029724
296.903046
314.72937
306.375183
307.133698
299.441376
303.785553
291.76004
284.571899
319.975708
298.309845
280.939697
307.106873
285.515625
337.8797
308.48468
314.730377
293.836334
306.30481
317.469086
277.789581
263.959778
317.513306
301.688263
304.526978
310.875702
289.284515
294.790619
317.134949
310.225006
286.120789
292.347198
355.305237
316.235657
310.919373
309.625183
328.894287
283.873627
274.591949
325.110474
311.999512
311.342529
310.231201
276.18689
319.894287
343.313416
284.201782
341.384521
269.83609
310.246948
248.427963
298.598328
306.190094
316.917908
337.262665
285.084839
292.589294
324.197998
332.469971
334.777313
299.263092
345.964355
289.320251
268.226929
298.00354
347.806641
276.422363
316.509277
318.440979
299.119202
297.419403
268.558838
298.194336
320.242249
270.360596
259.54306
313.8125
304.108368
287.375824
314.927246
294.503906
302.444092
314.400726
286.491028
256.447113
293.689545
279.26004
304.921783
322.921295
324.011932
292.501587
267.755371
309.94162
336.440613
323.48877
310.76178
294.113373
294.317108
282.641052
299.196808
242.097336
343.909485
300.669342
305.17688
306.871979
284.727844
290.41153
318.121094
306.315155
257.136627
292.648468
299.446655
302.143402
295.092682
267.809631
284.60144
298.691071
315.806061
308.690643
276.652618
294.663696
316.735779
330.414093
278.071014
344.66217
280.603333
328.064209
279.72049
300.9729
323.835876
303.646545
315.743042
325.72168
255.705002
317.228271
315.947418
295.299805
281.990356
298.555725
293.367554
260.422699
338.585205
330.345215
329.778961
249.57489
283.825104
320.902252
281.74707
321.433533
289.370514
313.136322
284.275604
309.989319
319.896545
303.165497
282.219818
304.458923
307.342346
302.683289
366.253113
299.289612
291.410553
322.629639
241.314774
280.448181
297.241364
318.093414
298.043152
321.081177
300.611237
231.642731
286.906036
293.412903
308.155029
325.854584
279.520569
322.854492
316.941345
311.599518
299.428925
294.09848
299.032471
321.460052
272.388275
290.080261
325.311096
309.17572
300.006897
311.075989
349.326782
350.969727
331.694519
322.303528
317.767609
319.14032
295.330627
262.228271
308.036011
325.222107
295.475189
334.066284
285.35791
316.972687
322.102295
341.54303
268.768158
343.730103
289.6521
275.292938
319.694702
319.870239
323.844513
295.587646
324.198883
330.283691
327.48761
289.131775
310.151245
331.34845
340.764221
306.427856
319.880096
313.933502
343.038696
268.212433
325.466156
301.860321
301.492767
310.343048
313.269562
318.506683
277.541931
325.958038
297.137543
294.788116
320.031128
324.638977
325.224182
293.924133
314.167755
305.520447
328.73468
278.518005
265.036957
283.196777
298.333466
299.147614
343.174438
347.588501
275.650482
310.38974
322.85849
302.085999
258.236847
262.775146
326.459778
371.156555
284.416016
312.424561
298.796326
297.838531
262.11731
277.657623
326.538208
300.235046
286.216858
279.549835
306.162903
323.987732
321.058014
291.559387
303.20575
278.661499
292.195282
327.262817
272.051117
337.968994
312.113159
284.144745
318.953918
312.22995
329.003296
285.460419
344.74231
305.848755
301.060944
346.479309
307.317932
314.047211
336.54895
333.305603
301.788055
305.931519
270.198608
318.742676
297.758636
318.576721
271.730103
329.358582
290.485565
328.437256
276.729218
300.543945
331.455017
296.995361
285.550476
317.507477
300.222839
270.608459
314.171997
310.175781
306.924622
283.967926
306.161255
295.965973
320.428284
331.325989
305.709229
278.014679
306.075317
319.589905
309.585114
333.37738
279.726105
278.323212
336.604858
292.222595
319.036682
274.386688
365.215393
294.781281
324.559845
255.211761
281.32605
364.467285
314.154999
290.464722
306.109314
300.998749
301.521637
289.667358
293.106598
332.827698
314.642334
316.34082
284.698334
350.993652
265.455383
351.640594
328.864044
290.68988
245.520203
318.986755
325.831116
290.416931
302.638458
287.100403
247.830231
247.008347
299.68277
308.555115
305.151428
300.461456
300.820709
315.980011
310.477051
314.554901
338.985809
351.148499
287.426239
281.668915
282.223877
283.921265
283.465637
275.516968
324.463013
322.330505
338.107117
288.065247
274.395508
320.702393
265.945892
306.94223
326.493164
323.943848
305.239471
289.080933
337.77478
293.703339
353.588562
330.462433
309.409393
276.053528
290.180939
315.651367
310.515076
284.172577
297.785614
367.505798
309.189911
309.985626
371.577454
301.088013
290.353546
292.602753
356.797974
284.489227
343.040588
343.239136
253.389084
308.538025
293.386108
296.474335
352.878845
268.823242
307.279602
287.840179
313.518982
342.411255
250.746292
314.075134
289.34549
327.575684
269.579651
321.622711
334.474121
279.556488
322.69397
317.669037
290.030731
304.118652
305.099731
317.722778
285.560028
277.789185
298.093262
272.638672
330.131409
260.877472
298.097015
306.769287
288.460999
325.534485
310.2435
311.436157
276.616852
301.159607
270.757477
315.000549
319.397125
309.78363
286.903198
328.820343
321.294403
361.686707
333.610352
303.453918
307.228119
328.710022
269.425568
311.107849
265.571625
274.089569
308.77179
312.640289
284.442749
334.280304
272.059296
324.738129
230.216064
263.990112
324.25946
278.081207
266.926514
270.980927
285.159271
330.047546
274.416138
305.008179
265.949707
330.917694
279.480499
298.532318
304.314392
296.395233
322.308044
303.264984
246.434296
311.321136
319.943848
273.08194
327.111267
331.768982
326.590363
281.181793
272.391907
311.818756
308.405701
335.414673
350.429199
283.828888
338.94458
322.728943
353.32959
320.724548
340.198517
332.660736
283.435272
278.89212
307.946747
303.279755
327.593811
294.578491
342.158325
281.339966
304.884705
288.000641
331.926636
269.442871
314.06073
302.30069
283.254211
256.635773
285.823792
286.029083
330.3078
311.818329
278.6987
300.841797
323.602234
294.087006
319.454407
325.312744
320.776733
323.193115
318.778259
296.114258
354.659851
272.804108
339.386841
322.909821
300.353546
318.59494
296.368958
316.732666
348.871277
300.783173
299.565125
321.527008
315.487488
265.738861
304.115143
316.675964
273.645355
291.265076
294.671631
299.503998
308.741486
294.842285
295.774109
303.469879
305.16333
325.076385
240.654953
250.04361
212.915375
314.848114
282.380829
340.647705
317.76886
272.364532
284.934357
321.335266
284.570862
299.518585
313.539673
341.12561
326.555481
308.18277
282.505951
295.111603
307.005829
304.368073
264.376068
298.428497
309.17804
318.045837
306.431671
296.392059
306.089355
290.162323
249.197906
277.140808
254.26181
335.358154
326.717865
317.137512
344.891663
286.897949
326.830078
296.300751
310.747589
315.426208
305.201385
309.484558
333.736572
325.449402
324.263824
331.775574
309.46286
320.250061
312.00235
343.806274
277.18811
304.435394
345.531738
301.80957
327.527039
315.722778
315.563782
308.673309
322.316895
298.917603
294.517303
286.599213
341.519958
292.400818
305.031433
311.483856
294.907043
311.777252
267.723511
240.975204
305.968567
302.622864
293.007385
319.523224
286.281189
336.756531
281.176422
268.721161
298.405945
325.662048
293.23233
278.154968
301.299896
341.302765
295.553619
341.550476
317.440125
310.335388
267.745972
294.366821
275.913361
300.011017
306.30365
291.775146
271.221771
317.135895
298.263123
257.339539
287.224457
315.269897
323.456116
249.908737
326.25238
325.60144
307.273132
278.397491
317.690063
298.994537
278.930511
271.071686
308.053528
261.453583
287.208954
340.388702
326.322327
276.356476
310.083893
318.380005
316.095551
301.92514
279.619537
300.511902
298.982056
283.675537
265.437195
243.421402
316.159912
326.483521
313.325378
257.492767
299.883667
323.173523
353.518402
344.094116
309.429016
308.140778
250.856583
324.705444
297.662933
296.057861
288.218994
270.490051
277.692474
237.923798
325.086517
283.983063
270.535187
299.497498
305.039459
302.858215
307.612915
344.846741
281.760651
284.298645
289.90564
316.222778
277.207672
324.807892
307.069275
320.389374
315.17218
340.396729
297.206329
228.746902
264.330505
312.799652
300.842102
330.518127
318.528473
283.098541
319.851715
339.931335
273.625977
331.32666
247.32782
276.699249
326.536865
340.97345
316.230072
303.901794
274.33725
287.000305
338.314484
313.675049
318.811096
305.317017
367.505798
318.22226
314.640289
271.812561
300.716187
300.354309
283.791107
330.983459
346.194092
310.315491
276.573242
346.887695
315.735718
264.413574
288.727448
